<?xml version="1.0" encoding="UTF-8" standalone="no"?>
<!-- Created with Inkscape (http://www.inkscape.org/) -->

<svg
   xmlns:dc="http://purl.org/dc/elements/1.1/"
   xmlns:cc="http://creativecommons.org/ns#"
   xmlns:rdf="http://www.w3.org/1999/02/22-rdf-syntax-ns#"
   xmlns:svg="http://www.w3.org/2000/svg"
   xmlns="http://www.w3.org/2000/svg"
   xmlns:sodipodi="http://sodipodi.sourceforge.net/DTD/sodipodi-0.dtd"
   xmlns:inkscape="http://www.inkscape.org/namespaces/inkscape"
   width="23"
   height="23"
   viewBox="0 0 6.0854165 6.0854168"
   version="1.1"
   id="svg8398"
   inkscape:version="0.92.4 5da689c313, 2019-01-14"
   sodipodi:docname="extracted_placement_template.svg">
  <defs
     id="defs8392">
    <inkscape:perspective
       sodipodi:type="inkscape:persp3d"
       inkscape:vp_x="0 : 3.0427084 : 1"
       inkscape:vp_y="0 : 1000 : 0"
       inkscape:vp_z="6.0854165 : 3.0427084 : 1"
       inkscape:persp3d-origin="3.0427083 : 2.0284723 : 1"
       id="perspective16647" />
  </defs>
  <sodipodi:namedview
     id="base"
     pagecolor="#ffffff"
     bordercolor="#666666"
     borderopacity="1.0"
     inkscape:pageopacity="0.0"
     inkscape:pageshadow="2"
     inkscape:zoom="31.678384"
     inkscape:cx="10.83405"
     inkscape:cy="13.587968"
     inkscape:document-units="px"
     inkscape:current-layer="layer1"
     showgrid="false"
     inkscape:pagecheckerboard="true"
     units="px"
     inkscape:window-width="1587"
     inkscape:window-height="1140"
     inkscape:window-x="2722"
     inkscape:window-y="97"
     inkscape:window-maximized="0" />
  <metadata
     id="metadata8395">
    <rdf:RDF>
      <cc:Work
         rdf:about="">
        <dc:format>image/svg+xml</dc:format>
        <dc:type
           rdf:resource="http://purl.org/dc/dcmitype/StillImage" />
        <dc:title></dc:title>
      </cc:Work>
    </rdf:RDF>
  </metadata>
  <g
     inkscape:label="Layer 1"
     inkscape:groupmode="layer"
     id="layer1"
     transform="translate(0,-290.91458)">
    <path
       sodipodi:nodetypes="scssssssssssssssssssssssssssssccccccccccccscssssssscccccccc"
       inkscape:connector-curvature="0"
       id="path15245-5-5"
       d="m 3.7041667,291.84055 c -0.566129,0 -1.0073428,0.3896 -1.145667,0.85833 -0.1718998,-0.19782 -0.3996584,-0.32916 -0.7064164,-0.32916 -0.5098785,0 -0.92604163,0.41616 -0.92604163,0.92604 0,0.50985 0.41616313,0.92604 0.92604163,0.92604 h 1.8520834 c 0.6560079,0 1.190625,-0.53464 1.190625,-1.19063 0,-0.656 -0.5346171,-1.19062 -1.190625,-1.19062 z m 0,0.79375 c 0.2176198,0 0.396875,0.17923 0.396875,0.39687 0,0.21762 -0.1792552,0.39688 -0.396875,0.39688 -0.2176198,0 -0.396875,-0.17926 -0.396875,-0.39688 0,-0.21764 0.1792552,-0.39687 0.396875,-0.39687 z m -1.8520834,0.26458 c 0.2176199,0 0.3968751,0.17923 0.3968751,0.39688 0,0.21762 -0.1792552,0.39687 -0.3968751,0.39687 -0.2176198,0 -0.396875,-0.17925 -0.396875,-0.39687 0,-0.21765 0.1792552,-0.39688 0.396875,-0.39688 z m 1.8520834,0 c -0.074639,0 -0.1322917,0.0577 -0.1322917,0.13229 0,0.0746 0.057653,0.1323 0.1322917,0.1323 0.074639,0 0.1322917,-0.0577 0.1322917,-0.1323 0,-0.0746 -0.057653,-0.13229 -0.1322917,-0.13229 z m -1.8520834,0.26459 c -0.074639,0 -0.1322916,0.0576 -0.1322916,0.13229 0,0.0746 0.057653,0.13229 0.1322916,0.13229 0.074639,0 0.1322917,-0.0577 0.1322917,-0.13229 0,-0.0746 -0.057653,-0.13229 -0.1322917,-0.13229 z m 0.2645834,1.32291 c -0.073052,0 -0.1322917,0.0592 -0.1322917,0.13229 v 0.26459 0.13229 H 1.7197917 v -0.13229 c 0.00106,-0.0747 -0.059677,-0.13552 -0.1343581,-0.13436 -0.073065,0 -0.1313683,0.0613 -0.1302253,0.13436 v 0.26458 0.26458 c 0.00238,0.17392 0.2621227,0.17392 0.2645834,0 v -0.13229 H 1.984375 v 0.13229 0.26459 c 0,0.0351 0.014023,0.0687 0.038756,0.0935 l 0.2645833,0.26458 c 0.024871,0.0249 0.058452,0.0388 0.093536,0.0388 h 1.3229164 c 0.073051,0 0.1322917,-0.0592 0.1322917,-0.13229 v -1.32292 c 0,-0.0731 -0.05924,-0.13229 -0.1322917,-0.13229 z m 2.9062839,0.26459 c -0.023045,0 -0.045485,0.007 -0.065114,0.0196 l -0.8598958,0.52916 c -0.08391,0.0517 -0.08391,0.17365 0,0.22532 l 0.8598958,0.52917 c 0.088101,0.0541 0.2014299,-0.009 0.2015384,-0.11266 v -1.05833 c 2.91e-5,-0.0747 -0.061756,-0.13462 -0.1364244,-0.1323 z"
       style="display:inline;opacity:1;vector-effect:none;fill:#ffffff;fill-opacity:1;stroke:none;stroke-width:0.26458338;stroke-linecap:round;stroke-linejoin:round;stroke-miterlimit:4;stroke-dasharray:none;stroke-dashoffset:0.5;stroke-opacity:1;marker:none;enable-background:new" />
  </g>
</svg>
