<?xml version="1.0" encoding="UTF-8" standalone="no"?>
<!-- Created with Inkscape (http://www.inkscape.org/) -->

<svg
   xmlns:dc="http://purl.org/dc/elements/1.1/"
   xmlns:cc="http://creativecommons.org/ns#"
   xmlns:rdf="http://www.w3.org/1999/02/22-rdf-syntax-ns#"
   xmlns:svg="http://www.w3.org/2000/svg"
   xmlns="http://www.w3.org/2000/svg"
   xmlns:sodipodi="http://sodipodi.sourceforge.net/DTD/sodipodi-0.dtd"
   xmlns:inkscape="http://www.inkscape.org/namespaces/inkscape"
   width="23"
   height="23"
   viewBox="0 0 6.0854165 6.0854168"
   version="1.1"
   id="svg8398"
   inkscape:version="0.92.4 5da689c313, 2019-01-14"
   sodipodi:docname="extracted_placement_template.svg">
  <defs
     id="defs8392">
    <inkscape:perspective
       sodipodi:type="inkscape:persp3d"
       inkscape:vp_x="0 : 3.0427084 : 1"
       inkscape:vp_y="0 : 1000 : 0"
       inkscape:vp_z="6.0854165 : 3.0427084 : 1"
       inkscape:persp3d-origin="3.0427083 : 2.0284723 : 1"
       id="perspective16647" />
  </defs>
  <sodipodi:namedview
     id="base"
     pagecolor="#ffffff"
     bordercolor="#666666"
     borderopacity="1.0"
     inkscape:pageopacity="0.0"
     inkscape:pageshadow="2"
     inkscape:zoom="31.678384"
     inkscape:cx="10.83405"
     inkscape:cy="13.587968"
     inkscape:document-units="px"
     inkscape:current-layer="layer1"
     showgrid="false"
     inkscape:pagecheckerboard="true"
     units="px"
     inkscape:window-width="1587"
     inkscape:window-height="1140"
     inkscape:window-x="2722"
     inkscape:window-y="97"
     inkscape:window-maximized="0" />
  <metadata
     id="metadata8395">
    <rdf:RDF>
      <cc:Work
         rdf:about="">
        <dc:format>image/svg+xml</dc:format>
        <dc:type
           rdf:resource="http://purl.org/dc/dcmitype/StillImage" />
        <dc:title></dc:title>
      </cc:Work>
    </rdf:RDF>
  </metadata>
  <g
     inkscape:label="Layer 1"
     inkscape:groupmode="layer"
     id="layer1"
     transform="translate(0,-290.91458)">
    <g
       transform="matrix(-0.26458333,0,0,0.26458333,389.86354,156.77083)"
       id="g17779"
       style="display:inline;fill:#ffffff;enable-background:new">
      <path
         style="color:#000000;font-style:normal;font-variant:normal;font-weight:normal;font-stretch:normal;font-size:medium;line-height:normal;font-family:sans-serif;font-variant-ligatures:normal;font-variant-position:normal;font-variant-caps:normal;font-variant-numeric:normal;font-variant-alternates:normal;font-feature-settings:normal;text-indent:0;text-align:start;text-decoration:none;text-decoration-line:none;text-decoration-style:solid;text-decoration-color:#000000;letter-spacing:normal;word-spacing:normal;text-transform:none;writing-mode:lr-tb;direction:ltr;text-orientation:mixed;dominant-baseline:auto;baseline-shift:baseline;text-anchor:start;white-space:normal;shape-padding:0;clip-rule:nonzero;display:inline;overflow:visible;visibility:visible;opacity:1;isolation:auto;mix-blend-mode:normal;color-interpolation:sRGB;color-interpolation-filters:linearRGB;solid-color:#000000;solid-opacity:1;vector-effect:none;fill:#ffffff;fill-opacity:1;fill-rule:nonzero;stroke:none;stroke-width:1;stroke-linecap:butt;stroke-linejoin:round;stroke-miterlimit:4;stroke-dasharray:none;stroke-dashoffset:0;stroke-opacity:1;marker:none;paint-order:fill markers stroke;color-rendering:auto;image-rendering:auto;shape-rendering:auto;text-rendering:auto;enable-background:accumulate"
         d="m 1455.5,512 c -0.2761,3e-5 -0.5,0.22387 -0.5,0.5 v 2 c 0,0.27613 0.2239,0.49997 0.5,0.5 h 11 c 0.2761,-3e-5 0.5,-0.22387 0.5,-0.5 v -2 c 0,-0.27613 -0.2239,-0.49997 -0.5,-0.5 z m 0.5,4 v 6.5 c 0,0.27613 0.2239,0.49997 0.5,0.5 h 9 c 0.2761,-3e-5 0.5,-0.22387 0.5,-0.5 V 516 Z m 4,1 h 2 c 1.3523,-0.0191 1.3523,2.01913 0,2 h -2 c -1.3523,0.0191 -1.3523,-2.01913 0,-2 z"
         id="path17776"
         inkscape:connector-curvature="0"
         sodipodi:nodetypes="cssccsscccsccsccccccc" />
      <path
         style="color:#000000;font-style:normal;font-variant:normal;font-weight:normal;font-stretch:normal;font-size:medium;line-height:normal;font-family:sans-serif;font-variant-ligatures:normal;font-variant-position:normal;font-variant-caps:normal;font-variant-numeric:normal;font-variant-alternates:normal;font-feature-settings:normal;text-indent:0;text-align:start;text-decoration:none;text-decoration-line:none;text-decoration-style:solid;text-decoration-color:#000000;letter-spacing:normal;word-spacing:normal;text-transform:none;writing-mode:lr-tb;direction:ltr;text-orientation:mixed;dominant-baseline:auto;baseline-shift:baseline;text-anchor:start;white-space:normal;shape-padding:0;clip-rule:nonzero;display:inline;overflow:visible;visibility:visible;opacity:1;isolation:auto;mix-blend-mode:normal;color-interpolation:sRGB;color-interpolation-filters:linearRGB;solid-color:#000000;solid-opacity:1;vector-effect:none;fill:#ffffff;fill-opacity:1;fill-rule:nonzero;stroke:none;stroke-width:2;stroke-linecap:butt;stroke-linejoin:round;stroke-miterlimit:4;stroke-dasharray:none;stroke-dashoffset:0;stroke-opacity:1;marker:none;paint-order:fill markers stroke;color-rendering:auto;image-rendering:auto;shape-rendering:auto;text-rendering:auto;enable-background:accumulate"
         d="m 1468,514 v 0.5 c 0,0.62337 -0.4468,1.06807 -1,1.28906 V 516 v 1 h 1.5 c 0.2761,-3e-5 0.5,-0.22387 0.5,-0.5 v -2 c 0,-0.27613 -0.2239,-0.49997 -0.5,-0.5 z m -1,4 v 4.5 c 0,0.8167 -0.6835,1.49991 -1.5,1.5 h -7.5 v 0.5 c 0,0.27613 0.2239,0.49997 0.5,0.5 h 9 c 0.2761,-3e-5 0.5,-0.22387 0.5,-0.5 V 518 Z"
         id="path17787"
         inkscape:connector-curvature="0"
         sodipodi:nodetypes="csccccsscccsccsccscc" />
    </g>
  </g>
</svg>
